…
#> -0.4795  0.1505  0.4227  0.4472  0.7798  1.0721 
#> Entropy decrease from BISG probabilities:
#>     Min.  1st Qu.   Median     Mean  3rd Qu.     Max. 
#> -0.85529 -0.02126  0.01974  0.06492  0.13638  1.16925 
#> 
#> Estimated outcome-by-race distribution:
#>     white black  hisp asian aian other
#> no  0.296 0.366 0.376 0.559 0.63 0.356
#> yes 0.704 0.634 0.624 0.441 0.37 0.644
coef(fit)
#>         white     black      hisp     asian      aian     other
#> no  0.2955088 0.3655487 0.3756242 0.5590668 0.6296485 0.3561447
#> yes 0.7044912 0.6344513 0.6243758 0.4409332 0.3703515 0.6438553
fitted(fit)
#> # A tibble: 5,000 × 6
#>    pr_white pr_black   pr_hisp   pr_asian  pr_aian pr_other
#>       <dbl>    <dbl>     <dbl>      <dbl>    <dbl>    <dbl>
#>  1  0.952   0.000953 0.0141    0.000603   0.0111     0.0213
#>  2  0.00190 0.987    0.000289  0.000162   0.000559   0.0105
#>  3  0.965   0.00669  0.000142  0.00000522 0.000423   0.0281
#>  4  0.596   0.368    0.00194   0.0000264  0.00124    0.0325
#>  5  0.983   0.00352  0.0000961 0.00191    0.000397   0.0106
#>  6  0.555   0.271    0.0985    0.00637    0.00269    0.0658
#>  7  0.117   0.773    0.0480    0.00545    0.00169    0.0548
#>  8  0.964   0.00421  0.0313    0          0          0     
#>  9  0.739   0.217    0.00995   0.000770   0.000795   0.0322
#> 10  0.864   0.0979   0.0139    0.000968   0.00145    0.0214
#> # ℹ 4,990 more rows
…
