Fit BIRDiE Models — birdie • birdie
…
#> -0.4805  0.1545  0.4362  0.4581  0.7993  1.0730 
#> Entropy decrease from BISG probabilities:
#>     Min.  1st Qu.   Median     Mean  3rd Qu.     Max. 
#> -0.88308 -0.02054  0.02267  0.07493  0.15424  1.18798 
#> 
#> Estimated outcome-by-race distribution:
#>     white black  hisp asian  aian other
#> no  0.294 0.368 0.375 0.562 0.635 0.369
#> yes 0.706 0.632 0.625 0.438 0.365 0.631
coef(fit)
#>         white     black      hisp     asian      aian     other
#> no  0.2937651 0.3676978 0.3750361 0.5624857 0.6346433 0.3686167
#> yes 0.7062349 0.6323022 0.6249639 0.4375143 0.3653567 0.6313833
fitted(fit)
#> # A tibble: 5,000 × 6
#>    pr_white pr_black   pr_hisp   pr_asian  pr_aian pr_other
#>       <dbl>    <dbl>     <dbl>      <dbl>    <dbl>    <dbl>
#>  1 0.952    0.000210 0.0141    0.000553   0.0113    0.0220 
#>  2 0.000179 0.994    0.0000658 0.000116   0.000514  0.00542
#>  3 0.961    0.00714  0.0000438 0.00000548 0.000399  0.0311 
#>  4 0.600    0.367    0.000342  0.0000128  0.00129   0.0316 
#>  5 0.984    0.00417  0.0000530 0.00221    0.000302  0.00955
#>  6 0.560    0.267    0.0980    0.00640    0.00269   0.0657 
#>  7 0.110    0.788    0.0372    0.00553    0.00174   0.0575 
#>  8 0.964    0.00427  0.0319    0          0         0      
#>  9 0.739    0.217    0.00995   0.000774   0.000822  0.0322 
#> 10 0.864    0.0979   0.0139    0.000971   0.00148   0.0214 
#> # ℹ 4,990 more rows
…
