Bayesian Improved Surname Geocoding (BISG) — bisg • birdie
…
Fiscella, K. and Fremont, A. M. (2006). Use of geocoding and surname analysis
to estimate race and ethnicity. Health Services Research,
41(4p1):1482–1500.

Imai, K., Olivella, S., & Rosenman, E. T. (2022). Addressing census data
problems in race imputation via fully Bayesian Improved Surname Geocoding and
name supplements. Science Advances, 8(49), eadc9824.

    Examples

data(pseudo_vf)
bisg(~ nm(last_name), data=pseudo_vf)
#> # A tibble: 5,000 × 6
#>    pr_white pr_black pr_hisp pr_asian pr_aian pr_other
#>       <dbl>    <dbl>   <dbl>    <dbl>   <dbl>    <dbl>
#>  1    0.826  0.0701   0.0305  0.00353 0.0208    0.0491
#>  2    0.362  0.547    0.0298  0.00315 0.00454   0.0533
#>  3    0.918  0.00887  0.0397  0.00697 0.00223   0.0240
#>  4    0.620  0.293    0.0317  0.00379 0.00545   0.0460
#>  5    0.892  0.0237   0.0413  0.00831 0.00295   0.0322
#>  6    0.844  0.0790   0.0309  0.00384 0.00542   0.0370
#>  7    0.491  0.419    0.0297  0.00390 0.00548   0.0512
#>  8    0.982  0.00574  0.0120  0       0         0     
#>  9    0.713  0.194    0.0319  0.00422 0.00695   0.0497
#> 10    0.593  0.337    0.0262  0.00278 0.00406   0.0368
#> # ℹ 4,990 more rows
…
data(pseudo_vf)
bisg_me(~ nm(last_name) + zip(zip), data=pseudo_vf)
#> # A tibble: 5,000 × 6
#>    pr_white pr_black pr_hisp pr_asian pr_aian pr_other
#>       <dbl>    <dbl>   <dbl>    <dbl>   <dbl>    <dbl>
#>  1    0.963   0.005   0.004     0.001   0.016   0.011 
#>  2    0.205   0.772   0.009     0       0.001   0.013 
#>  3    0.977   0.001   0.01      0.006   0       0.006 
#>  4    0.649   0.314   0.015     0       0.002   0.0200
#>  5    0.994   0.001   0.002     0.001   0.001   0.001 
#>  6    0.640   0.281   0.0370    0.011   0.005   0.0260
#>  7    0.180   0.747   0.0300    0.005   0.001   0.0370
#>  8    0.985   0.002   0.013     0       0       0     
#>  9    0.799   0.175   0.006     0       0.004   0.016 
#> 10    0.911   0.0750  0.005     0       0.002   0.007 
#> # ℹ 4,990 more rows
…
