…
  If `TRUE`, return the table as actual population counts; if `FALSE`,
  return table as percentages within each geography.

## Value

A data frame with geographic identifier column(s) and six columns
`white`, `black`, etc. containing the counts or proportion of residents
in each racial group.

## Examples

``` r
census_race_geo_table("zcta", year=2010)
#> # A tibble: 33,120 × 7
#>    GEOID white black  hisp asian  aian other
#>    <chr> <int> <int> <int> <int> <int> <int>
#>  1 00601    80     2 18486     1     1     0
#>  2 00602   216    13 41265    15     0    11
#>  3 00603   628   101 53877    50     2    31
#>  4 00606    32     3  6575     4     0     1
#>  5 00610   187    22 28789     8     0    10
#>  6 00612   439    45 66435    48     5    38
#>  7 00616    36    11 10965     1     1     3
#>  8 00617   110    17 24450    15     0     5
#>  9 00622   129     8  7708     3     0     5
#> 10 00623   326    28 42665    18     1    23
#> # ℹ 33,110 more rows
…
