Calculate Weighted Estimate of (Discrete) Outcomes By Race — est_weighted • birdie
…
est_weighted(r_probs, turnout ~ 1, data=pseudo_vf)
#> Weighted estimator
#> Formula: turnout ~ 1
#>    Data: pseudo_vf
#> Number of obs: 5,000; groups: 1
#> Estimated distribution:
#>     white black  hisp asian aian other
#> no  0.315 0.335 0.357 0.468 0.53 0.329
#> yes 0.685 0.665 0.643 0.532 0.47 0.671

est = est_weighted(r_probs, turnout ~ zip, data=pseudo_vf)
tidy(est, subgroup=TRUE)
#> # A tibble: 7,416 × 4
#>    zip   turnout race  estimate
#>    <chr> <chr>   <chr>    <dbl>
#>  1 28748 no      white    0.276
#>  2 28748 yes     white    0.724
#>  3 28748 no      black    0.340
#>  4 28748 yes     black    0.660
#>  5 28748 no      hisp     0.147
#>  6 28748 yes     hisp     0.853
#>  7 28748 no      asian    0.284
#>  8 28748 yes     asian    0.716
#>  9 28748 no      aian     0.211
#> 10 28748 yes     aian     0.789
#> # ℹ 7,406 more rows
…
