…
- turnout:

  1 if the voter voted in the most recent election, 0 otherwise

## Source

<https://www.ncsbe.gov/results-data/voter-registration-data>

## Examples

``` r
data(pseudo_vf)
print(pseudo_vf)
#> # A tibble: 5,000 × 4
#>    last_name zip   race  turnout
#>    <fct>     <fct> <fct> <fct>  
#>  1 BEAVER    28748 white yes    
#>  2 WILLIAMS  28144 black no     
#>  3 ROSEN     28270 white yes    
#>  4 SMITH     28677 black yes    
#>  5 FAY       28748 white no     
#>  6 CHURCH    28215 white yes    
#>  7 JOHNSON   28212 black yes    
#>  8 SZCZYGIEL NA    white yes    
#>  9 SUMMERS   28152 black yes    
#> 10 STARLING  28650 white yes    
#> # ℹ 4,990 more rows
```
