Estimation of Racial Disparities When Race is Not Observed • birdie
…
This document will walk you through how to use birdie.
First, load in the package.

library(birdie)
library(dplyr)

For a concrete example, we’ll use some fake voter file data. Our goal
is to estimate turnout rates by race.

data(pseudo_vf)

print(pseudo_vf)
#> # A tibble: 5,000 × 4
#>    last_name zip   race  turnout
#>    <fct>     <fct> <fct> <fct>  
#>  1 BEAVER    28748 white yes    
#>  2 WILLIAMS  28144 black no     
#>  3 ROSEN     28270 white yes    
#>  4 SMITH     28677 black yes    
#>  5 FAY       28748 white no     
#>  6 CHURCH    28215 white yes    
#>  7 JOHNSON   28212 black yes    
#>  8 SZCZYGIEL NA    white yes    
#>  9 SUMMERS   28152 black yes    
#> 10 STARLING  28650 white yes    
#> # ℹ 4,990 more rows
…
Generating BISG probabilities

For the first step, you can use any BISG software, including the wru R
package. However, birdie provides its own
bisg() function to make this easy and very computationally
efficient. To use bisg(), you provide a formula that labels
the predictors used. You use nm() to show which variable
contains last names, which must always be provided. ZIP codes and states
can be labeled with zip() and state(). Other
types of geographies can be used as well—just read the documentation for
bisg().

r_probs = bisg(~ nm(last_name) + zip(zip), data=pseudo_vf, p_r=p_r)
print(r_probs)
#> # A tibble: 5,000 × 6
#>    pr_white pr_black  pr_hisp pr_asian  pr_aian pr_other
#>       <dbl>    <dbl>    <dbl>    <dbl>    <dbl>    <dbl>
#>  1    0.971  0.00517 0.00201  0.000144 0.0136    0.00819
#>  2    0.128  0.860   0.00186  0.000169 0.00104   0.00920
#>  3    0.979  0.00539 0.00436  0.00232  0.000606  0.00837
#>  4    0.521  0.459   0.00535  0.000219 0.00150   0.0124 
#>  5    0.989  0.00165 0.00257  0.000319 0.00182   0.00506
#>  6    0.522  0.431   0.0175   0.00125  0.00384   0.0242 
#>  7    0.112  0.859   0.0113   0.000720 0.00190   0.0153 
#>  8    0.991  0.00794 0.000766 0        0         0      
#>  9    0.701  0.283   0.00183  0.000160 0.00136   0.0122 
#> 10    0.854  0.133   0.00265  0.000204 0.00241   0.00845
#> # ℹ 4,990 more rows
…
